module apartments-server

go 1.21.2

require (
	github.com/joho/godotenv v1.5.1
	github.com/kataras/iris/v12 v12.2.7
	gorm.io/driver/postgres v1.5.4
	gorm.io/gorm v1.25.5
)

require (
	github.com/BurntSushi/toml v1.3.2 // indirect
	github.com/CloudyKit/fastprinter v0.0.0-20200109182630-33d98a066a53 // indirect
	github.com/CloudyKit/jet/v6 v6.2.0 // indirect
	github.com/Joker/jade v1.1.3 // indirect
	github.com/Shopify/goreferrer v0.0.0-20220729165902-8cddb4f5de06 // indirect
	github.com/andybalholm/brotli v1.0.5 // indirect
	github.com/aymerick/douceur v0.2.0 // indirect
	github.com/fatih/structs v1.1.0 // indirect
	github.com/flosch/pongo2/v4 v4.0.2 // indirect
	github.com/gabriel-vasile/mimetype v1.4.2 // indirect
	github.com/go-playground/locales v0.14.1 // indirect
	github.com/go-playground/universal-translator v0.18.1 // indirect
	github.com/go-playground/validator/v10 v10.16.0 // indirect
	github.com/golang/snappy v0.0.4 // indirect
	github.com/gomarkdown/markdown v0.0.0-20230922112808-5421fefb8386 // indirect
	github.com/google/uuid v1.3.1 // indirect
	github.com/gorilla/css v1.0.0 // indirect
	github.com/iris-contrib/schema v0.0.6 // indirect
	github.com/jackc/pgpassfile v1.0.0 // indirect
	github.com/jackc/pgservicefile v0.0.0-20221227161230-091c0ba34f0a // indirect
	github.com/jackc/pgx/v5 v5.4.3 // indirect
	github.com/jinzhu/inflection v1.0.0 // indirect
	github.com/jinzhu/now v1.1.5 // indirect
	github.com/josharian/intern v1.0.0 // indirect
	github.com/kataras/blocks v0.0.8 // indirect
	github.com/kataras/golog v0.1.9 // indirect
	github.com/kataras/pio v0.0.12 // indirect
	github.com/kataras/sitemap v0.0.6 // indirect
	github.com/kataras/tunnel v0.0.4 // indirect
	github.com/klauspost/compress v1.17.0 // indirect
	github.com/leodido/go-urn v1.2.4 // indirect
	github.com/mailgun/raymond/v2 v2.0.48 // indirect
	github.com/mailru/easyjson v0.7.7 // indirect
	github.com/microcosm-cc/bluemonday v1.0.25 // indirect
	github.com/rogpeppe/go-internal v1.11.0 // indirect
	github.com/russross/blackfriday/v2 v2.1.0 // indirect
	github.com/schollz/closestmatch v2.1.0+incompatible // indirect
	github.com/sirupsen/logrus v1.8.1 // indirect
	github.com/tdewolff/minify/v2 v2.12.9 // indirect
	github.com/tdewolff/parse/v2 v2.6.8 // indirect
	github.com/valyala/bytebufferpool v1.0.0 // indirect
	github.com/vmihailenco/msgpack/v5 v5.3.5 // indirect
	github.com/vmihailenco/tagparser/v2 v2.0.0 // indirect
	github.com/yosssi/ace v0.0.5 // indirect
	golang.org/x/crypto v0.14.0 // indirect
	golang.org/x/exp v0.0.0-20230905200255-921286631fa9 // indirect
	golang.org/x/net v0.15.0 // indirect
	golang.org/x/sys v0.13.0 // indirect
	golang.org/x/text v0.13.0 // indirect
	golang.org/x/time v0.3.0 // indirect
	google.golang.org/protobuf v1.31.0 // indirect
	gopkg.in/ini.v1 v1.67.0 // indirect
	gopkg.in/yaml.v3 v3.0.1 // indirect
)
